{
  "key": "arbeitsstationtyp-protected",
  "content": [
    { "de": "Benutzer haben Zugriff auf NB-Sammlungen und Anwendungen. Diese Workstation erlaubt keinen allgemeinen Zugriff auf das Internet. Das Kopieren oder Speichern von Inhalten auf ein externes USB-Laufwerk ist ebenfalls gesperrt.  Um mit MS-Office-Programmen Inhalte zu erstellen und zu speichern oder auf das Internet zuzugreifen, melden Sie sich bitte ab und wählen Sie den Arbeitsplatz \"Public\"."},
    { "fr": "Les utilisateurs ont accès aux collections et aux applications du NB. Ce poste de travail ne permet pas un accès général à l'internet. La copie ou la sauvegarde de contenus sur une clé USB externe est également désactivée.  Pour utiliser les programmes MS Office pour créer et sauvegarder du contenu ou accéder à l'Internet, veuillez vous déconnecter et sélectionner le poste de travail \"Public\"."},
    { "it": "Gli utenti hanno accesso alle collezioni e alle applicazioni NB. Questa stazione di lavoro non permette l'accesso generale a Internet. Anche la copia o il salvataggio di contenuti su un'unità USB esterna è disabilitata.  Per utilizzare i programmi MS Office per creare e salvare dei contenuti o per accedere a Internet, ti invitiamo a disconnetterti e a selezionare la postazione \"Public\"."},
    { "en": "Users have access to NB collections and applications. This workstation does not permit general access to the internet. Copying or saving contents to an external USB drive is also disabled.  To use MS Office Programs to create and save content or access the Internet, please log out and select the \"Public\" workstation."}
  ]
}